Title of Talk
…
# A tibble: 7 × 5
  trees min_n tree_depth learn_rate loss_reduction
  <int> <int>      <int>      <dbl>          <dbl>
1   735     2          5    0.149         3.90e- 1
2  1739    26          9    0.00269       1.25e- 9
3   192     9          6    0.00752       1.11e- 9
4  1155     7          3    0.0108        7.42e- 9
5   339    31          4    0.0250        2.71e- 8
6    47    18         14    0.0384        5.18e- 2
7  1580    18          2    0.118         1.71e-10

grid_regular(params, levels = 7)

# A tibble: 16,807 × 5
   trees min_n tree_depth learn_rate loss_reduction
   <int> <int>      <int>      <dbl>          <dbl>
 1     1     2          1      0.001   0.0000000001
 2   334     2          1      0.001   0.0000000001
 3   667     2          1      0.001   0.0000000001
 4  1000     2          1      0.001   0.0000000001
 5  1333     2          1      0.001   0.0000000001
 6  1666     2          1      0.001   0.0000000001
 7  2000     2          1      0.001   0.0000000001
 8     1     8          1      0.001   0.0000000001
 9   334     8          1      0.001   0.0000000001
10   667     8          1      0.001   0.0000000001
# ℹ 16,797 more rows
…
Space Filling Grids

grid <- grid_space_filling(params, size = 50)
grid

# A tibble: 50 × 5
   trees min_n tree_depth learn_rate loss_reduction
   <int> <int>      <int>      <dbl>          <dbl>
 1     1    15          7    0.0483   0.00000000256
 2    41    16         10    0.00932  2.12         
 3    82    37          9    0.0212   0.000217     
 4   123     7          3    0.0268   0.0281       
 5   164     4         11    0.00409  0.0000429    
 6   204    25          1    0.0168   0.0000146    
 7   245    17          7    0.281    0.0164       
 8   286    12         15    0.0611   0.0000250    
 9   327     7          3    0.00324  0.0000000222 
10   368    22         12    0.00126  0.00000848   
# ℹ 40 more rows
…
